SHIPMENT_ID,SEQUENCE_NO,CARRIAGE,DATE,FROM_ADDRESS,FROM_COORDINATES,FROM_CODE,TO_ADDRESS,TO_COORDINATES,TO_CODE,DISTANCE,DISTANCE_UNIT,WEIGHT,WEIGHT_UNIT,CARGO_TYPE,VEHICLE,IS_REFRIGERATED,FUEL_TYPE,VESSEL_ID,AIRLINE_CODE,AIRCRAFT_CODE,FLIGHT_NO,LOAD_FACTOR,SCOPE,CATEGORY
1,,,2022-01-01,"Port of Antwerp, Belgium",,,"Port of Duisburg, Germany","51.4485,6.7454",,,,"100,000",KG,,BTV1,,,,,,,,,
2,,,2022-01-01,,,FRLEH,,,FRPAR,,,8,TEU,,BCV,,,,,,,,,
3,,,2022-01-01,,,NLRTM,,,CHBSL,,,"10,000",LBS,,BMV2,,,,,,,,,